lab2a-div/divider.vcd
$date
	Fri Feb  3 13:48:03 2023
$end
$version
	Icarus Verilog
$end
$timescale
	1ps
$end
$scope module test_divider $end
$var wire 16 ! o_div_remainder [15:0] $end
$var wire 16 " o_div_quotient [15:0] $end
$var wire 16 # o_1iter_remainder [15:0] $end
$var wire 16 $ o_1iter_quotient [15:0] $end
$var wire 16 % o_1iter_dividend [15:0] $end
$var reg 16 & exp_dividend [15:0] $end
$var reg 16 ' exp_quotient [15:0] $end
$var reg 16 ( exp_remainder [15:0] $end
$var reg 16 ) i_dividend [15:0] $end
$var reg 16 * i_divisor [15:0] $end
$var reg 16 + i_quotient [15:0] $end
$var reg 16 , i_remainder [15:0] $end
$var integer 32 - __ignore [31:0] $end
$var integer 32 . allTests [31:0] $end
$var integer 32 / divTests [31:0] $end
$var integer 32 0 errors [31:0] $end
$var integer 32 1 input_file [31:0] $end
$var integer 32 2 randomSeed [31:0] $end
$scope module div $end
$var wire 16 3 i_dividend [15:0] $end
$var wire 16 4 i_divisor [15:0] $end
$var wire 16 5 o_remainder [15:0] $end
$var wire 16 6 o_quotient [15:0] $end
$var wire 16 7 dividend_temp [15:0] $end
$var wire 16 8 curr_remainder [15:0] $end
$var wire 16 9 curr_quotient [15:0] $end
$scope begin genblk1[1] $end
$scope module middle $end
$var wire 16 : curr_remainder [15:0] $end
$var wire 16 ; i_dividend [15:0] $end
$var wire 16 < i_divisor [15:0] $end
$var wire 16 = i_quotient [15:0] $end
$var wire 16 > i_remainder [15:0] $end
$var wire 16 ? subtract [15:0] $end
$var wire 16 @ out_curr_remainder [15:0] $end
$var wire 16 A out_curr_quotient [15:0] $end
$var wire 16 B o_remainder [15:0] $end
$var wire 16 C o_quotient [15:0] $end
$var wire 16 D o_dividend [15:0] $end
$var wire 16 E curr_quotient [15:0] $end
$var wire 16 F bits [15:0] $end
$upscope $end
$upscope $end
$scope begin genblk1[2] $end
$scope module middle $end
$var wire 16 G curr_remainder [15:0] $end
$var wire 16 H i_dividend [15:0] $end
$var wire 16 I i_divisor [15:0] $end
$var wire 16 J i_quotient [15:0] $end
$var wire 16 K i_remainder [15:0] $end
$var wire 16 L subtract [15:0] $end
$var wire 16 M out_curr_remainder [15:0] $end
$var wire 16 N out_curr_quotient [15:0] $end
$var wire 16 O o_remainder [15:0] $end
$var wire 16 P o_quotient [15:0] $end
$var wire 16 Q o_dividend [15:0] $end
$var wire 16 R curr_quotient [15:0] $end
$var wire 16 S bits [15:0] $end
$upscope $end
$upscope $end
$scope begin genblk1[3] $end
$scope module middle $end
$var wire 16 T curr_remainder [15:0] $end
$var wire 16 U i_dividend [15:0] $end
$var wire 16 V i_divisor [15:0] $end
$var wire 16 W i_quotient [15:0] $end
$var wire 16 X i_remainder [15:0] $end
$var wire 16 Y subtract [15:0] $end
$var wire 16 Z out_curr_remainder [15:0] $end
$var wire 16 [ out_curr_quotient [15:0] $end
$var wire 16 \ o_remainder [15:0] $end
$var wire 16 ] o_quotient [15:0] $end
$var wire 16 ^ o_dividend [15:0] $end
$var wire 16 _ curr_quotient [15:0] $end
$var wire 16 ` bits [15:0] $end
$upscope $end
$upscope $end
$scope begin genblk1[4] $end
$scope module middle $end
$var wire 16 a curr_remainder [15:0] $end
$var wire 16 b i_dividend [15:0] $end
$var wire 16 c i_divisor [15:0] $end
$var wire 16 d i_quotient [15:0] $end
$var wire 16 e i_remainder [15:0] $end
$var wire 16 f subtract [15:0] $end
$var wire 16 g out_curr_remainder [15:0] $end
$var wire 16 h out_curr_quotient [15:0] $end
$var wire 16 i o_remainder [15:0] $end
$var wire 16 j o_quotient [15:0] $end
$var wire 16 k o_dividend [15:0] $end
$var wire 16 l curr_quotient [15:0] $end
$var wire 16 m bits [15:0] $end
$upscope $end
$upscope $end
$scope begin genblk1[5] $end
$scope module middle $end
$var wire 16 n curr_remainder [15:0] $end
$var wire 16 o i_dividend [15:0] $end
$var wire 16 p i_divisor [15:0] $end
$var wire 16 q i_quotient [15:0] $end
$var wire 16 r i_remainder [15:0] $end
$var wire 16 s subtract [15:0] $end
$var wire 16 t out_curr_remainder [15:0] $end
$var wire 16 u out_curr_quotient [15:0] $end
$var wire 16 v o_remainder [15:0] $end
$var wire 16 w o_quotient [15:0] $end
$var wire 16 x o_dividend [15:0] $end
$var wire 16 y curr_quotient [15:0] $end
$var wire 16 z bits [15:0] $end
$upscope $end
$upscope $end
$scope begin genblk1[6] $end
$scope module middle $end
$var wire 16 { curr_remainder [15:0] $end
$var wire 16 | i_dividend [15:0] $end
$var wire 16 } i_divisor [15:0] $end
$var wire 16 ~ i_quotient [15:0] $end
$var wire 16 !" i_remainder [15:0] $end
$var wire 16 "" subtract [15:0] $end
$var wire 16 #" out_curr_remainder [15:0] $end
$var wire 16 $" out_curr_quotient [15:0] $end
$var wire 16 %" o_remainder [15:0] $end
$var wire 16 &" o_quotient [15:0] $end
$var wire 16 '" o_dividend [15:0] $end
$var wire 16 (" curr_quotient [15:0] $end
$var wire 16 )" bits [15:0] $end
$upscope $end
$upscope $end
$scope begin genblk1[7] $end
$scope module middle $end
$var wire 16 *" curr_remainder [15:0] $end
$var wire 16 +" i_dividend [15:0] $end
$var wire 16 ," i_divisor [15:0] $end
$var wire 16 -" i_quotient [15:0] $end
$var wire 16 ." i_remainder [15:0] $end
$var wire 16 /" subtract [15:0] $end
$var wire 16 0" out_curr_remainder [15:0] $end
$var wire 16 1" out_curr_quotient [15:0] $end
$var wire 16 2" o_remainder [15:0] $end
$var wire 16 3" o_quotient [15:0] $end
$var wire 16 4" o_dividend [15:0] $end
$var wire 16 5" curr_quotient [15:0] $end
$var wire 16 6" bits [15:0] $end
$upscope $end
$upscope $end
$scope begin genblk1[8] $end
$scope module middle $end
$var wire 16 7" curr_remainder [15:0] $end
$var wire 16 8" i_dividend [15:0] $end
$var wire 16 9" i_divisor [15:0] $end
$var wire 16 :" i_quotient [15:0] $end
$var wire 16 ;" i_remainder [15:0] $end
$var wire 16 <" subtract [15:0] $end
$var wire 16 =" out_curr_remainder [15:0] $end
$var wire 16 >" out_curr_quotient [15:0] $end
$var wire 16 ?" o_remainder [15:0] $end
$var wire 16 @" o_quotient [15:0] $end
$var wire 16 A" o_dividend [15:0] $end
$var wire 16 B" curr_quotient [15:0] $end
$var wire 16 C" bits [15:0] $end
$upscope $end
$upscope $end
$scope begin genblk1[9] $end
$scope module middle $end
$var wire 16 D" curr_remainder [15:0] $end
$var wire 16 E" i_dividend [15:0] $end
$var wire 16 F" i_divisor [15:0] $end
$var wire 16 G" i_quotient [15:0] $end
$var wire 16 H" i_remainder [15:0] $end
$var wire 16 I" subtract [15:0] $end
$var wire 16 J" out_curr_remainder [15:0] $end
$var wire 16 K" out_curr_quotient [15:0] $end
$var wire 16 L" o_remainder [15:0] $end
$var wire 16 M" o_quotient [15:0] $end
$var wire 16 N" o_dividend [15:0] $end
$var wire 16 O" curr_quotient [15:0] $end
$var wire 16 P" bits [15:0] $end
$upscope $end
$upscope $end
$scope begin genblk1[10] $end
$scope module middle $end
$var wire 16 Q" curr_remainder [15:0] $end
$var wire 16 R" i_dividend [15:0] $end
$var wire 16 S" i_divisor [15:0] $end
$var wire 16 T" i_quotient [15:0] $end
$var wire 16 U" i_remainder [15:0] $end
$var wire 16 V" subtract [15:0] $end
$var wire 16 W" out_curr_remainder [15:0] $end
$var wire 16 X" out_curr_quotient [15:0] $end
$var wire 16 Y" o_remainder [15:0] $end
$var wire 16 Z" o_quotient [15:0] $end
$var wire 16 [" o_dividend [15:0] $end
$var wire 16 \" curr_quotient [15:0] $end
$var wire 16 ]" bits [15:0] $end
$upscope $end
$upscope $end
$scope begin genblk1[11] $end
$scope module middle $end
$var wire 16 ^" curr_remainder [15:0] $end
$var wire 16 _" i_dividend [15:0] $end
$var wire 16 `" i_divisor [15:0] $end
$var wire 16 a" i_quotient [15:0] $end
$var wire 16 b" i_remainder [15:0] $end
$var wire 16 c" subtract [15:0] $end
$var wire 16 d" out_curr_remainder [15:0] $end
$var wire 16 e" out_curr_quotient [15:0] $end
$var wire 16 f" o_remainder [15:0] $end
$var wire 16 g" o_quotient [15:0] $end
$var wire 16 h" o_dividend [15:0] $end
$var wire 16 i" curr_quotient [15:0] $end
$var wire 16 j" bits [15:0] $end
$upscope $end
$upscope $end
$scope begin genblk1[12] $end
$scope module middle $end
$var wire 16 k" curr_remainder [15:0] $end
$var wire 16 l" i_dividend [15:0] $end
$var wire 16 m" i_divisor [15:0] $end
$var wire 16 n" i_quotient [15:0] $end
$var wire 16 o" i_remainder [15:0] $end
$var wire 16 p" subtract [15:0] $end
$var wire 16 q" out_curr_remainder [15:0] $end
$var wire 16 r" out_curr_quotient [15:0] $end
$var wire 16 s" o_remainder [15:0] $end
$var wire 16 t" o_quotient [15:0] $end
$var wire 16 u" o_dividend [15:0] $end
$var wire 16 v" curr_quotient [15:0] $end
$var wire 16 w" bits [15:0] $end
$upscope $end
$upscope $end
$scope begin genblk1[13] $end
$scope module middle $end
$var wire 16 x" curr_remainder [15:0] $end
$var wire 16 y" i_dividend [15:0] $end
$var wire 16 z" i_divisor [15:0] $end
$var wire 16 {" i_quotient [15:0] $end
$var wire 16 |" i_remainder [15:0] $end
$var wire 16 }" subtract [15:0] $end
$var wire 16 ~" out_curr_remainder [15:0] $end
$var wire 16 !# out_curr_quotient [15:0] $end
$var wire 16 "# o_remainder [15:0] $end
$var wire 16 ## o_quotient [15:0] $end
$var wire 16 $# o_dividend [15:0] $end
$var wire 16 %# curr_quotient [15:0] $end
$var wire 16 &# bits [15:0] $end
$upscope $end
$upscope $end
$scope begin genblk1[14] $end
$scope module middle $end
$var wire 16 '# curr_remainder [15:0] $end
$var wire 16 (# i_dividend [15:0] $end
$var wire 16 )# i_divisor [15:0] $end
$var wire 16 *# i_quotient [15:0] $end
$var wire 16 +# i_remainder [15:0] $end
$var wire 16 ,# subtract [15:0] $end
$var wire 16 -# out_curr_remainder [15:0] $end
$var wire 16 .# out_curr_quotient [15:0] $end
$var wire 16 /# o_remainder [15:0] $end
$var wire 16 0# o_quotient [15:0] $end
$var wire 16 1# o_dividend [15:0] $end
$var wire 16 2# curr_quotient [15:0] $end
$var wire 16 3# bits [15:0] $end
$upscope $end
$upscope $end
$scope module first $end
$var wire 16 4# curr_remainder [15:0] $end
$var wire 16 5# i_dividend [15:0] $end
$var wire 16 6# i_divisor [15:0] $end
$var wire 16 7# i_quotient [15:0] $end
$var wire 16 8# i_remainder [15:0] $end
$var wire 16 9# subtract [15:0] $end
$var wire 16 :# out_curr_remainder [15:0] $end
$var wire 16 ;# out_curr_quotient [15:0] $end
$var wire 16 <# o_remainder [15:0] $end
$var wire 16 =# o_quotient [15:0] $end
$var wire 16 ># o_dividend [15:0] $end
$var wire 16 ?# curr_quotient [15:0] $end
$var wire 16 @# bits [15:0] $end
$upscope $end
$scope module last $end
$var wire 16 A# curr_remainder [15:0] $end
$var wire 16 B# i_dividend [15:0] $end
$var wire 16 C# i_divisor [15:0] $end
$var wire 16 D# i_quotient [15:0] $end
$var wire 16 E# i_remainder [15:0] $end
$var wire 16 F# subtract [15:0] $end
$var wire 16 G# out_curr_remainder [15:0] $end
$var wire 16 H# out_curr_quotient [15:0] $end
$var wire 16 I# o_remainder [15:0] $end
$var wire 16 J# o_quotient [15:0] $end
$var wire 16 K# o_dividend [15:0] $end
$var wire 16 L# curr_quotient [15:0] $end
$var wire 16 M# bits [15:0] $end
$upscope $end
$upscope $end
$scope module divider_iter $end
$var wire 16 N# curr_remainder [15:0] $end
$var wire 16 O# i_dividend [15:0] $end
$var wire 16 P# i_divisor [15:0] $end
$var wire 16 Q# i_quotient [15:0] $end
$var wire 16 R# i_remainder [15:0] $end
$var wire 16 S# subtract [15:0] $end
$var wire 16 T# out_curr_remainder [15:0] $end
$var wire 16 U# out_curr_quotient [15:0] $end
$var wire 16 V# o_remainder [15:0] $end
$var wire 16 W# o_quotient [15:0] $end
$var wire 16 X# o_dividend [15:0] $end
$var wire 16 Y# curr_quotient [15:0] $end
$var wire 16 Z# bits [15:0] $end
$upscope $end
$scope task printPoints $end
$var reg 32 [# actual [31:0] $end
$var reg 32 \# possible [31:0] $end
$upscope $end
$upscope $end
$enddefinitions $end
#0
$dumpvars
bx \#
bx [#
b1 Z#
b0 Y#
b0 X#
b0 W#
b0 V#
b1 U#
b0 T#
b0 S#
b0 R#
b0 Q#
b0 P#
b0 O#
b0 N#
b1 M#
b0 L#
b0 K#
b0 J#
b0 I#
b1 H#
b0 G#
b0 F#
b0 E#
b0 D#
b0 C#
b0 B#
b0 A#
b1 @#
b0 ?#
b0 >#
b0 =#
b0 <#
b1 ;#
b0 :#
b0 9#
b0 8#
b0 7#
b0 6#
b0 5#
b0 4#
b1 3#
b0 2#
b0 1#
b0 0#
b0 /#
b1 .#
b0 -#
b0 ,#
b0 +#
b0 *#
b0 )#
b0 (#
b0 '#
b1 &#
b0 %#
b0 $#
b0 ##
b0 "#
b1 !#
b0 ~"
b0 }"
b0 |"
b0 {"
b0 z"
b0 y"
b0 x"
b1 w"
b0 v"
b0 u"
b0 t"
b0 s"
b1 r"
b0 q"
b0 p"
b0 o"
b0 n"
b0 m"
b0 l"
b0 k"
b1 j"
b0 i"
b0 h"
b0 g"
b0 f"
b1 e"
b0 d"
b0 c"
b0 b"
b0 a"
b0 `"
b0 _"
b0 ^"
b1 ]"
b0 \"
b0 ["
b0 Z"
b0 Y"
b1 X"
b0 W"
b0 V"
b0 U"
b0 T"
b0 S"
b0 R"
b0 Q"
b1 P"
b0 O"
b0 N"
b0 M"
b0 L"
b1 K"
b0 J"
b0 I"
b0 H"
b0 G"
b0 F"
b0 E"
b0 D"
b1 C"
b0 B"
b0 A"
b0 @"
b0 ?"
b1 >"
b0 ="
b0 <"
b0 ;"
b0 :"
b0 9"
b0 8"
b0 7"
b1 6"
b0 5"
b0 4"
b0 3"
b0 2"
b1 1"
b0 0"
b0 /"
b0 ."
b0 -"
b0 ,"
b0 +"
b0 *"
b1 )"
b0 ("
b0 '"
b0 &"
b0 %"
b1 $"
b0 #"
b0 ""
b0 !"
b0 ~
b0 }
b0 |
b0 {
b1 z
b0 y
b0 x
b0 w
b0 v
b1 u
b0 t
b0 s
b0 r
b0 q
b0 p
b0 o
b0 n
b1 m
b0 l
b0 k
b0 j
b0 i
b1 h
b0 g
b0 f
b0 e
b0 d
b0 c
b0 b
b0 a
b1 `
b0 _
b0 ^
b0 ]
b0 \
b1 [
b0 Z
b0 Y
b0 X
b0 W
b0 V
b0 U
b0 T
b1 S
b0 R
b0 Q
b0 P
b0 O
b1 N
b0 M
b0 L
b0 K
b0 J
b0 I
b0 H
b0 G
b1 F
b0 E
b0 D
b0 C
b0 B
b1 A
b0 @
b0 ?
b0 >
b0 =
b0 <
b0 ;
b0 :
bz000000000000000 9
bz000000000000000 8
b0 7
b0 6
b0 5
b0 4
b0 3
b10000000001011000100010000000000 2
b10000000000000000000000000000011 1
b0 0
bx /
b0 .
bx -
b0 ,
b0 +
b0 *
b0 )
bx (
bx '
bx &
b0 %
b0 $
b0 #
b0 "
b0 !
$end
#102000
b1101010010 #
b1101010010 V#
b0 E
b0 R
b0 _
b0 l
b0 y
b0 ("
b0 5"
b0 B"
b0 O"
b0 \"
b0 i"
b0 v"
b0 %#
b0 2#
b0 L#
b1101010010 T#
b0 ;#
b0 =
b0 A
b0 J
b0 N
b0 W
b0 [
b0 d
b0 h
b0 q
b0 u
b0 ~
b0 $"
b0 -"
b0 1"
b0 :"
b0 >"
b0 G"
b0 K"
b0 T"
b0 X"
b0 a"
b0 e"
b0 n"
b0 r"
b0 {"
b0 !#
b0 *#
b0 .#
b0 D#
b0 H#
b0 U#
b1101010010 N#
bz000000000000000 9
b0 @#
b0 =#
b0 F
b0 C
b0 S
b0 P
b0 `
b0 ]
b0 m
b0 j
b0 z
b0 w
b0 )"
b0 &"
b0 6"
b0 3"
b0 C"
b0 @"
b0 P"
b0 M"
b0 ]"
b0 Z"
b0 j"
b0 g"
b0 w"
b0 t"
b0 &#
b0 ##
b0 3#
b0 0#
b0 M#
b0 "
b0 6
b0 J#
b0 Z#
b0 $
b0 W#
b100000000000000 >#
b100000000000000 %
b100000000000000 X#
b0 '
b1101010010 (
b100000000000000 &
b110101001 ,
b110101001 R#
b1010000101111111 9#
b1010000101111111 ?
b1010000101111111 L
b1010000101111111 Y
b1010000101111111 f
b1010000101111111 s
b1010000101111111 ""
b1010000101111111 /"
b1010000101111111 <"
b1010000101111111 I"
b1010000101111111 V"
b1010000101111111 c"
b1010000101111111 p"
b1010000101111111 }"
b1010000101111111 ,#
b1010000101111111 F#
b1010010011010001 S#
b101111010000001 *
b101111010000001 4
b101111010000001 <
b101111010000001 I
b101111010000001 V
b101111010000001 c
b101111010000001 p
b101111010000001 }
b101111010000001 ,"
b101111010000001 9"
b101111010000001 F"
b101111010000001 S"
b101111010000001 `"
b101111010000001 m"
b101111010000001 z"
b101111010000001 )#
b101111010000001 6#
b101111010000001 C#
b101111010000001 P#
b10000000000000 )
b10000000000000 3
b10000000000000 5#
b10000000000000 O#
b1 -
#110000
b1 .
#112000
b110101100000 #
b110101100000 V#
b110101100000 T#
b110101100000 N#
b1001000000000000 >#
b1001000000000000 %
b1001000000000000 X#
b110101100000 (
b1001000000000000 &
b11010110000 ,
b11010110000 R#
b1010100110011101 9#
b1010100110011101 ?
b1010100110011101 L
b1010100110011101 Y
b1010100110011101 f
b1010100110011101 s
b1010100110011101 ""
b1010100110011101 /"
b1010100110011101 <"
b1010100110011101 I"
b1010100110011101 V"
b1010100110011101 c"
b1010100110011101 p"
b1010100110011101 }"
b1010100110011101 ,#
b1010100110011101 F#
b1011011011111101 S#
b101011001100011 *
b101011001100011 4
b101011001100011 <
b101011001100011 I
b101011001100011 V
b101011001100011 c
b101011001100011 p
b101011001100011 }
b101011001100011 ,"
b101011001100011 9"
b101011001100011 F"
b101011001100011 S"
b101011001100011 `"
b101011001100011 m"
b101011001100011 z"
b101011001100011 )#
b101011001100011 6#
b101011001100011 C#
b101011001100011 P#
b100100000000000 )
b100100000000000 3
b100100000000000 5#
b100100000000000 O#
b10 -
#120000
b10 .
#122000
b11110110000 #
b11110110000 V#
b11110110000 T#
b11110110000 N#
b1101000000000000 >#
b1101000000000000 %
b1101000000000000 X#
b11110110000 (
b1101000000000000 &
b1111011000 ,
b1111011000 R#
b110011001110011 9#
b110011001110011 ?
b110011001110011 L
b110011001110011 Y
b110011001110011 f
b110011001110011 s
b110011001110011 ""
b110011001110011 /"
b110011001110011 <"
b110011001110011 I"
b110011001110011 V"
b110011001110011 c"
b110011001110011 p"
b110011001110011 }"
b110011001110011 ,#
b110011001110011 F#
b110111000100011 S#
b1001100110001101 *
b1001100110001101 4
b1001100110001101 <
b1001100110001101 I
b1001100110001101 V
b1001100110001101 c
b1001100110001101 p
b1001100110001101 }
b1001100110001101 ,"
b1001100110001101 9"
b1001100110001101 F"
b1001100110001101 S"
b1001100110001101 `"
b1001100110001101 m"
b1001100110001101 z"
b1001100110001101 )#
b1001100110001101 6#
b1001100110001101 C#
b1001100110001101 P#
b110100000000000 )
b110100000000000 3
b110100000000000 5#
b110100000000000 O#
b11 -
#130000
b11 .
#132000
b100001000110 #
b100001000110 V#
b100001000110 T#
b100001000110 N#
b101000000000000 >#
b101000000000000 %
b101000000000000 X#
b100001000110 (
b101000000000000 &
b10000100011 ,
b10000100011 R#
b1010110111101110 9#
b1010110111101110 ?
b1010110111101110 L
b1010110111101110 Y
b1010110111101110 f
b1010110111101110 s
b1010110111101110 ""
b1010110111101110 /"
b1010110111101110 <"
b1010110111101110 I"
b1010110111101110 V"
b1010110111101110 c"
b1010110111101110 p"
b1010110111101110 }"
b1010110111101110 ,#
b1010110111101110 F#
b1011011000110100 S#
b101001000010010 *
b101001000010010 4
b101001000010010 <
b101001000010010 I
b101001000010010 V
b101001000010010 c
b101001000010010 p
b101001000010010 }
b101001000010010 ,"
b101001000010010 9"
b101001000010010 F"
b101001000010010 S"
b101001000010010 `"
b101001000010010 m"
b101001000010010 z"
b101001000010010 )#
b101001000010010 6#
b101001000010010 C#
b101001000010010 P#
b10100000000000 )
b10100000000000 3
b10100000000000 5#
b10100000000000 O#
b100 -
#140000
b100 .
#142000
b111000110000 #
b111000110000 V#
b111000110000 T#
b111000110000 N#
b1000000000000 >#
b1000000000000 %
b1000000000000 X#
b111000110000 (
b1000000000000 &
b11100011000 ,
b11100011000 R#
b11001011110011 9#
b11001011110011 ?
b11001011110011 L
b11001011110011 Y
b11001011110011 f
b11001011110011 s
b11001011110011 ""
b11001011110011 /"
b11001011110011 <"
b11001011110011 I"
b11001011110011 V"
b11001011110011 c"
b11001011110011 p"
b11001011110011 }"
b11001011110011 ,#
b11001011110011 F#
b100000100100011 S#
b1100110100001101 *
b1100110100001101 4
b1100110100001101 <
b1100110100001101 I
b1100110100001101 V
b1100110100001101 c
b1100110100001101 p
b1100110100001101 }
b1100110100001101 ,"
b1100110100001101 9"
b1100110100001101 F"
b1100110100001101 S"
b1100110100001101 `"
b1100110100001101 m"
b1100110100001101 z"
b1100110100001101 )#
b1100110100001101 6#
b1100110100001101 C#
b1100110100001101 P#
b100000000000 )
b100000000000 3
b100000000000 5#
b100000000000 O#
b101 -
#150000
b101 .
#152000
b10 B
b10 @
b10 :
b1 >
bz000000000000001 8
b1 <#
b111100010111 #
b111100010111 V#
b1 :#
b111100010111 T#
b1 4#
b111100010111 N#
b110000000000000 >#
b110000000000000 %
b110000000000000 X#
b111100010111 (
b110000000000000 &
b11110001011 ,
b11110001011 R#
b11001011000100 9#
b11001011000101 ?
b11001011000011 L
b11001011000011 Y
b11001011000011 f
b11001011000011 s
b11001011000011 ""
b11001011000011 /"
b11001011000011 <"
b11001011000011 I"
b11001011000011 V"
b11001011000011 c"
b11001011000011 p"
b11001011000011 }"
b11001011000011 ,#
b11001011000011 F#
b100000111011010 S#
b1100110100111101 *
b1100110100111101 4
b1100110100111101 <
b1100110100111101 I
b1100110100111101 V
b1100110100111101 c
b1100110100111101 p
b1100110100111101 }
b1100110100111101 ,"
b1100110100111101 9"
b1100110100111101 F"
b1100110100111101 S"
b1100110100111101 `"
b1100110100111101 m"
b1100110100111101 z"
b1100110100111101 )#
b1100110100111101 6#
b1100110100111101 C#
b1100110100111101 P#
b1011000000000000 )
b1011000000000000 3
b1011000000000000 5#
b1011000000000000 O#
b110 -
#160000
b110 .
#162000
b0 B
b0 @
b0 :
b0 >
bz000000000000000 8
b0 <#
b10101111110 #
b10101111110 V#
b0 :#
b10101111110 T#
b0 4#
b10101111110 N#
b1101000000000000 >#
b1101000000000000 %
b1101000000000000 X#
b10101111110 (
b1101000000000000 &
b1010111111 ,
b1010111111 R#
b100001110100 9#
b100001110100 ?
b100001110100 L
b100001110100 Y
b100001110100 f
b100001110100 s
b100001110100 ""
b100001110100 /"
b100001110100 <"
b100001110100 I"
b100001110100 V"
b100001110100 c"
b100001110100 p"
b100001110100 }"
b100001110100 ,#
b100001110100 F#
b110111110010 S#
b1111011110001100 *
b1111011110001100 4
b1111011110001100 <
b1111011110001100 I
b1111011110001100 V
b1111011110001100 c
b1111011110001100 p
b1111011110001100 }
b1111011110001100 ,"
b1111011110001100 9"
b1111011110001100 F"
b1111011110001100 S"
b1111011110001100 `"
b1111011110001100 m"
b1111011110001100 z"
b1111011110001100 )#
b1111011110001100 6#
b1111011110001100 C#
b1111011110001100 P#
b110100000000000 )
b110100000000000 3
b110100000000000 5#
b110100000000000 O#
b111 -
#170000
b111 .
#172000
b10 B
b10 @
b10 :
b1 >
bz000000000000001 8
b1 <#
b111010011111 #
b111010011111 V#
b1 :#
b111010011111 T#
b1 4#
b111010011111 N#
b1001000000000000 >#
b1001000000000000 %
b1001000000000000 X#
b111010011111 (
b1001000000000000 &
b11101001111 ,
b11101001111 R#
b1101101100111011 9#
b1101101100111100 ?
b1101101100111010 L
b1101101100111010 Y
b1101101100111010 f
b1101101100111010 s
b1101101100111010 ""
b1101101100111010 /"
b1101101100111010 <"
b1101101100111010 I"
b1101101100111010 V"
b1101101100111010 c"
b1101101100111010 p"
b1101101100111010 }"
b1101101100111010 ,#
b1101101100111010 F#
b1110100111011001 S#
b10010011000110 *
b10010011000110 4
b10010011000110 <
b10010011000110 I
b10010011000110 V
b10010011000110 c
b10010011000110 p
b10010011000110 }
b10010011000110 ,"
b10010011000110 9"
b10010011000110 F"
b10010011000110 S"
b10010011000110 `"
b10010011000110 m"
b10010011000110 z"
b10010011000110 )#
b10010011000110 6#
b10010011000110 C#
b10010011000110 P#
b1100100000000000 )
b1100100000000000 3
b1100100000000000 5#
b1100100000000000 O#
b1000 -
#180000
b1000 .
#182000
b0 B
b0 @
b0 :
b0 >
bz000000000000000 8
b0 <#
b100001001100 #
b100001001100 V#
b0 :#
b100001001100 T#
b0 4#
b100001001100 N#
b101000000000000 >#
b101000000000000 %
b101000000000000 X#
b100001001100 (
b101000000000000 &
b10000100110 ,
b10000100110 R#
b10110101010110 9#
b10110101010110 ?
b10110101010110 L
b10110101010110 Y
b10110101010110 f
b10110101010110 s
b10110101010110 ""
b10110101010110 /"
b10110101010110 <"
b10110101010110 I"
b10110101010110 V"
b10110101010110 c"
b10110101010110 p"
b10110101010110 }"
b10110101010110 ,#
b10110101010110 F#
b11010110100010 S#
b1101001010101010 *
b1101001010101010 4
b1101001010101010 <
b1101001010101010 I
b1101001010101010 V
b1101001010101010 c
b1101001010101010 p
b1101001010101010 }
b1101001010101010 ,"
b1101001010101010 9"
b1101001010101010 F"
b1101001010101010 S"
b1101001010101010 `"
b1101001010101010 m"
b1101001010101010 z"
b1101001010101010 )#
b1101001010101010 6#
b1101001010101010 C#
b1101001010101010 P#
b10100000000000 )
b10100000000000 3
b10100000000000 5#
b10100000000000 O#
b1001 -
#190000
b1001 .
#192000
b111101111110 #
b111101111110 V#
b111101111110 T#
b111101111110 N#
b111101111110 (
b11110111111 ,
b11110111111 R#
b1000110110001001 9#
b1000110110001001 ?
b1000110110001001 L
b1000110110001001 Y
b1000110110001001 f
b1000110110001001 s
b1000110110001001 ""
b1000110110001001 /"
b1000110110001001 <"
b1000110110001001 I"
b1000110110001001 V"
b1000110110001001 c"
b1000110110001001 p"
b1000110110001001 }"
b1000110110001001 ,#
b1000110110001001 F#
b1001110100000111 S#
b111001001110111 *
b111001001110111 4
b111001001110111 <
b111001001110111 I
b111001001110111 V
b111001001110111 c
b111001001110111 p
b111001001110111 }
b111001001110111 ,"
b111001001110111 9"
b111001001110111 F"
b111001001110111 S"
b111001001110111 `"
b111001001110111 m"
b111001001110111 z"
b111001001110111 )#
b111001001110111 6#
b111001001110111 C#
b111001001110111 P#
b1010 -
#200000
b1010 .
#202000
b10 B
b10 @
b10 :
b1 >
bz000000000000001 8
b1 <#
b110101100001 #
b110101100001 V#
b1 :#
b110101100001 T#
b1 4#
b110101100001 N#
b10000000000000 >#
b10000000000000 %
b10000000000000 X#
b110101100001 (
b10000000000000 &
b11010110000 ,
b11010110000 R#
b10010001110010 9#
b10010001110011 ?
b10010001110001 L
b10010001110001 Y
b10010001110001 f
b10010001110001 s
b10010001110001 ""
b10010001110001 /"
b10010001110001 <"
b10010001110001 I"
b10010001110001 V"
b10010001110001 c"
b10010001110001 p"
b10010001110001 }"
b10010001110001 ,#
b10010001110001 F#
b11000111010010 S#
b1101101110001111 *
b1101101110001111 4
b1101101110001111 <
b1101101110001111 I
b1101101110001111 V
b1101101110001111 c
b1101101110001111 p
b1101101110001111 }
b1101101110001111 ,"
b1101101110001111 9"
b1101101110001111 F"
b1101101110001111 S"
b1101101110001111 `"
b1101101110001111 m"
b1101101110001111 z"
b1101101110001111 )#
b1101101110001111 6#
b1101101110001111 C#
b1101101110001111 P#
b1001000000000000 )
b1001000000000000 3
b1001000000000000 5#
b1001000000000000 O#
b1011 -
#210000
b1011 .
#212000
b11010011111 #
b11010011111 V#
b11010011111 T#
b11010011111 N#
b11010011111 (
b1101001111 ,
b1101001111 R#
b110100100110011 9#
b110100100110100 ?
b110100100110010 L
b110100100110010 Y
b110100100110010 f
b110100100110010 s
b110100100110010 ""
b110100100110010 /"
b110100100110010 <"
b110100100110010 I"
b110100100110010 V"
b110100100110010 c"
b110100100110010 p"
b110100100110010 }"
b110100100110010 ,#
b110100100110010 F#
b110111111010001 S#
b1001011011001110 *
b1001011011001110 4
b1001011011001110 <
b1001011011001110 I
b1001011011001110 V
b1001011011001110 c
b1001011011001110 p
b1001011011001110 }
b1001011011001110 ,"
b1001011011001110 9"
b1001011011001110 F"
b1001011011001110 S"
b1001011011001110 `"
b1001011011001110 m"
b1001011011001110 z"
b1001011011001110 )#
b1001011011001110 6#
b1001011011001110 C#
b1001011011001110 P#
b1100 -
#220000
b1100 .
